{"photos":{"page":1,"pages":1354,"perpage":100,"total":135332,"photo":[{"id":"52511847438","owner":"196499498@N03","secret":"9cc38f8061","server":"65535","farm":66,"title":"The Border Collie Breed - What You Need To Know About This Breed","ispublic":1,"isfriend":0,"isfamily":0},{"id":"52511295511","owner":"72649331@N00","secret":"ff68073729","server":"65535","farm":66,"title":"C8F61DBF-F3BB-4D28-A703-4FC8A4534B19","ispublic":1,"isfriend":0,"isfamily":0},{"id":"52511845708","owner":"72649331@N00","secret":"1cb5f7588e","server":"65535","farm":66,"title":"C322B5DB-5EC8-45F2-A2A1-925E184390FC","ispublic":1,"isfriend":0,"isfamily":0},{"id":"52511568294","owner":"72649331@N00","secret":"13716097de","server":"65535","farm":66,"title":"7F0CA558-6377-464E-B1BD-B69391C918F2","ispublic":1,"isfriend":0,"isfamily":0},{"id":"52511568149","owner":"72649331@N00","secret":"bbc7214f60","server":"65535","farm":66,"title":"B49FD057-439A-4A9A-958E-3A0EC4A258D1","ispublic":1,"isfriend":0,"isfamily":0},{"id":"52511778360","owner":"72649331@N00","secret":"fa8f64f266","server":"65535","farm":66,"title":"90691866-A4D8-4E8A-ADCB-0A9621B2E614","ispublic":1,"isfriend":0,"isfamily":0},{"id":"52511845243","owner":"72649331@N00","secret":"77bcfdb32d","server":"65535","farm":66,"title":"A8317E45-6CDF-4695-B83A-DE3C360D0336","ispublic":1,"isfriend":0,"isfamily":0},{"id":"52511778205","owner":"72649331@N00","secret":"deeefc2e68","server":"65535","farm":66,"title":"AD3372EF-F8CE-4CAB-9F6F-3E1654C027B6","ispublic":1,"isfriend":0,"isfamily":0},{"id":"52511567774","owner":"72649331@N00","secret":"d7586a27d7","server":"65535","farm":66,"title":"B01519BD-64F9-4C4E-A2D8-0492AEF45703","ispublic":1,"isfriend":0,"isfamily":0},{"id":"52511777795","owner":"72649331@N00","secret":"e662b53b5b","server":"65535","farm":66,"title":"919D2704-E44A-4CD2-BFE7-A257BDB99A2D","ispublic":1,"isfriend":0,"isfamily":0},{"id":"52511777730","owner":"72649331@N00","secret":"2ecdf01db8","server":"65535","farm":66,"title":"7D5DB2A3-80FB-468E-9DBB-896D613DD557","ispublic":1,"isfriend":0,"isfamily":0},{"id":"52511844573","owner":"72649331@N00","secret":"207c296897","server":"65535","farm":66,"title":"A78A5497-1FF9-4F1B-8A31-65342C9F4F8A","ispublic":1,"isfriend":0,"isfamily":0},{"id":"52511844463","owner":"72649331@N00","secret":"61f0110e79","server":"65535","farm":66,"title":"F718B394-C7DD-48D8-A358-9FD1CA59D481","ispublic":1,"isfriend":0,"isfamily":0},{"id":"52511777460","owner":"72649331@N00","secret":"acb0778199","server":"65535","farm":66,"title":"580C0B98-0213-4C6B-80F2-2D705DCAF0E7","ispublic":1,"isfriend":0,"isfamily":0},{"id":"52511844288","owner":"72649331@N00","secret":"7798da79fd","server":"65535","farm":66,"title":"A227B2CD-8F4C-46E7-AEBC-993E149E7562","ispublic":1,"isfriend":0,"isfamily":0},{"id":"52511777275","owner":"72649331@N00","secret":"524ab41307","server":"65535","farm":66,"title":"07F3EDF0-E407-46FF-AC9F-8955536D063E","ispublic":1,"isfriend":0,"isfamily":0},{"id":"52510821122","owner":"72649331@N00","secret":"67c0a40be1","server":"65535","farm":66,"title":"0DB7ECE4-5EC9-4D95-97A8-89FE7FE95A71","ispublic":1,"isfriend":0,"isfamily":0},{"id":"52511777070","owner":"72649331@N00","secret":"c444a354b1","server":"65535","farm":66,"title":"D3DDCE86-3AF8-410E-A3AA-6BF40DF559A5","ispublic":1,"isfriend":0,"isfamily":0},{"id":"52510820817","owner":"72649331@N00","secret":"dd6da19a12","server":"65535","farm":66,"title":"F00E429F-0819-46BA-B196-121D3A6DBBC5","ispublic":1,"isfriend":0,"isfamily":0},{"id":"52511776790","owner":"72649331@N00","secret":"3ed658043a","server":"65535","farm":66,"title":"3272727C-C91E-4362-A1AA-E3D1A48B8F12","ispublic":1,"isfriend":0,"isfamily":0},{"id":"52511293186","owner":"72649331@N00","secret":"a1cb8e2a75","server":"65535","farm":66,"title":"2998E258-9FC3-4ABF-92A1-7C53362B25C8","ispublic":1,"isfriend":0,"isfamily":0},{"id":"52510820462","owner":"72649331@N00","secret":"bc8af1459f","server":"65535","farm":66,"title":"07C24A42-69C8-470F-AAE0-40E14269D7EC","ispublic":1,"isfriend":0,"isfamily":0},{"id":"52511776465","owner":"72649331@N00","secret":"4e537145eb","server":"65535","farm":66,"title":"2090910F-554D-4455-9A67-3463C846F4BE","ispublic":1,"isfriend":0,"isfamily":0},{"id":"52511565974","owner":"72649331@N00","secret":"5f0ebe83b1","server":"65535","farm":66,"title":"6895A7C3-256C-4E91-B253-F8C02BDB26E1","ispublic":1,"isfriend":0,"isfamily":0},{"id":"52510820232","owner":"72649331@N00","secret":"2af6b3cb11","server":"65535","farm":66,"title":"6DB4072B-8BE9-48CB-8B3F-1A2BF90E7125","ispublic":1,"isfriend":0,"isfamily":0},{"id":"52511776205","owner":"72649331@N00","secret":"20bc65f0cc","server":"65535","farm":66,"title":"2A6E1813-BB07-417A-BF36-D5A647313017","ispublic":1,"isfriend":0,"isfamily":0},{"id":"52511292601","owner":"72649331@N00","secret":"e48181106a","server":"65535","farm":66,"title":"B9696BE3-2E51-4770-9B46-990B79155A83","ispublic":1,"isfriend":0,"isfamily":0},{"id":"52511842778","owner":"72649331@N00","secret":"e55f6f0b20","server":"65535","farm":66,"title":"620C8541-27B6-48F7-9B07-5544A919FE3C","ispublic":1,"isfriend":0,"isfamily":0},{"id":"52511292386","owner":"72649331@N00","secret":"92684ec35c","server":"65535","farm":66,"title":"B1D14771-2DD5-4F9D-A8CC-71D9EF1466A7","ispublic":1,"isfriend":0,"isfamily":0},{"id":"52511565269","owner":"72649331@N00","secret":"d674eab370","server":"65535","farm":66,"title":"57B4632B-475C-4CA2-8761-2CFD3FC23EA5","ispublic":1,"isfriend":0,"isfamily":0},{"id":"52511762560","owner":"196953185@N05","secret":"8e8e55facb","server":"0","farm":0,"title":"Auto Car Title Loans Visalia CA","ispublic":1,"isfriend":0,"isfamily":0},{"id":"52511551244","owner":"36653703@N06","secret":"9a4e1b8ac7","server":"65535","farm":66,"title":"106 - 057- ITA - GB 821 BR - James Bardini - GBR","ispublic":1,"isfriend":0,"isfamily":0},{"id":"52511278331","owner":"36653703@N06","secret":"8b188d468c","server":"65535","farm":66,"title":"106 - 055- ITA - GB 821 BR - Fabrizio Paris - ITA","ispublic":1,"isfriend":0,"isfamily":0},{"id":"52511758730","owner":"54785709@N08","secret":"79d99595e4","server":"65535","farm":66,"title":"IFMAR Participant Plaque","ispublic":1,"isfriend":0,"isfamily":0},{"id":"52511271041","owner":"196953185@N05","secret":"af07c4b979","server":"0","farm":0,"title":"Auto Car Title Loans Visalia CA | 380-867-0799 Easy Money","ispublic":1,"isfriend":0,"isfamily":0},{"id":"52511271291","owner":"196953185@N05","secret":"40a080aa75","server":"65535","farm":66,"title":"Auto Car Title Loans Visalia CA | 380-867-0799 Easy Money","ispublic":1,"isfriend":0,"isfamily":0},{"id":"52511544199","owner":"196953185@N05","secret":"ca6fe623d2","server":"65535","farm":66,"title":"Auto Car Title Loans Visalia CA | 380-867-0799 Easy Money","ispublic":1,"isfriend":0,"isfamily":0},{"id":"52511755030","owner":"196953185@N05","secret":"531825e090","server":"65535","farm":66,"title":"Auto Car Title Loans Visalia CA | 380-867-0799 Easy Money","ispublic":1,"isfriend":0,"isfamily":0},{"id":"52511821493","owner":"196953185@N05","secret":"9367290b88","server":"65535","farm":66,"title":"Auto Car Title Loans Visalia CA | 380-867-0799 Easy Money","ispublic":1,"isfriend":0,"isfamily":0},{"id":"52511741530","owner":"8021817@N07","secret":"358bea5e57","server":"65535","farm":66,"title":"1930 Ford Model A Sedan","ispublic":1,"isfriend":0,"isfamily":0},{"id":"52511808678","owner":"8021817@N07","secret":"d7350d18c6","server":"65535","farm":66,"title":"1928 Chrysler Roadster","ispublic":1,"isfriend":0,"isfamily":0},{"id":"52511257831","owner":"8021817@N07","secret":"3942825bcc","server":"65535","farm":66,"title":"1936 Packard Roadster","ispublic":1,"isfriend":0,"isfamily":0},{"id":"26915598393","owner":"96573930@N04","secret":"c84849a64d","server":"65535","farm":66,"title":"Miskolc regional bus: Ikarus 250 # DUM-110","ispublic":1,"isfriend":0,"isfamily":0},{"id":"24191391335","owner":"96573930@N04","secret":"13e4f57ece","server":"65535","farm":66,"title":"Skåne regional bus: MAN Lion's City # 1146","ispublic":1,"isfriend":0,"isfamily":0},{"id":"52510779847","owner":"190477311@N05","secret":"f65e20e97c","server":"65535","farm":66,"title":"Carpark, Upton Country Park, Poole","ispublic":1,"isfriend":0,"isfamily":0},{"id":"52511803048","owner":"190477311@N05","secret":"e14635cf6c","server":"65535","farm":66,"title":"Carpark, Upton Country Park, Poole","ispublic":1,"isfriend":0,"isfamily":0},{"id":"52511725625","owner":"17600001@N08","secret":"54894e8dd2","server":"65535","farm":66,"title":"1960 Buick LeSabre","ispublic":1,"isfriend":0,"isfamily":0},{"id":"52511719045","owner":"144256050@N03","secret":"d0bfbb6189","server":"65535","farm":66,"title":"The sun setting behind us as reflected in the side mirror of the car","ispublic":1,"isfriend":0,"isfamily":0},{"id":"52511233681","owner":"54785709@N08","secret":"d1c943d888","server":"65535","farm":66,"title":"Roger Curtis, Jim Halsey and \"Motor Wizard\" Mike Reedy","ispublic":1,"isfriend":0,"isfamily":0},{"id":"52511230061","owner":"124509138@N07","secret":"f20a6b894c","server":"65535","farm":66,"title":"SDMA HeartKids 2022","ispublic":1,"isfriend":0,"isfamily":0},{"id":"52511502639","owner":"124509138@N07","secret":"7ab334fbfb","server":"65535","farm":66,"title":"SDMA HeartKids 2022","ispublic":1,"isfriend":0,"isfamily":0},{"id":"52511229531","owner":"124509138@N07","secret":"d198da2a17","server":"65535","farm":66,"title":"SDMA HeartKids 2022","ispublic":1,"isfriend":0,"isfamily":0},{"id":"52511229291","owner":"124509138@N07","secret":"4507d896eb","server":"65535","farm":66,"title":"SDMA HeartKids 2022","ispublic":1,"isfriend":0,"isfamily":0},{"id":"52511501519","owner":"124509138@N07","secret":"c51aef2f8d","server":"65535","farm":66,"title":"SDMA HeartKids 2022","ispublic":1,"isfriend":0,"isfamily":0},{"id":"52511476894","owner":"196117605@N05","secret":"df53f27b44","server":"65535","farm":66,"title":"Bike Memorial For Adam Excell","ispublic":1,"isfriend":0,"isfamily":0},{"id":"52511706275","owner":"144851895@N03","secret":"7f006fc820","server":"65535","farm":66,"title":"Wesleyan Division A, Row 5, Plots 41a & 42b","ispublic":1,"isfriend":0,"isfamily":0},{"id":"52511767013","owner":"26759263@N06","secret":"d8028cea67","server":"65535","farm":66,"title":"San Francisco Muni 2076B","ispublic":1,"isfriend":0,"isfamily":0},{"id":"52511215141","owner":"34270131@N07","secret":"0d6f7659cb","server":"65535","farm":66,"title":"KIA Shop","ispublic":1,"isfriend":0,"isfamily":0},{"id":"52510739927","owner":"72649331@N00","secret":"3c61947c71","server":"65535","farm":66,"title":"B9AD829F-5C7E-46B5-BAE3-0279CF1BDF33","ispublic":1,"isfriend":0,"isfamily":0},{"id":"52511212336","owner":"72649331@N00","secret":"465653821a","server":"65535","farm":66,"title":"EC026F32-364F-46E7-826F-7C6FD20F850E","ispublic":1,"isfriend":0,"isfamily":0},{"id":"52511212146","owner":"72649331@N00","secret":"73206602ee","server":"65535","farm":66,"title":"26031B07-ED73-46ED-AE67-39CD6903601D","ispublic":1,"isfriend":0,"isfamily":0},{"id":"52511762143","owner":"72649331@N00","secret":"f98665ae46","server":"65535","farm":66,"title":"650B77FD-E0A1-484A-93A5-BD93082C1E82","ispublic":1,"isfriend":0,"isfamily":0},{"id":"52510739532","owner":"72649331@N00","secret":"71c2afde21","server":"65535","farm":66,"title":"1820FDD4-1B08-46F3-8FC5-397DF2894177","ispublic":1,"isfriend":0,"isfamily":0},{"id":"52511211926","owner":"72649331@N00","secret":"056de43f35","server":"65535","farm":66,"title":"48A68797-A8D9-408E-8292-B57DE56B9AC2","ispublic":1,"isfriend":0,"isfamily":0},{"id":"52511695760","owner":"72649331@N00","secret":"055a46b35a","server":"65535","farm":66,"title":"10F7634D-740E-4B19-953E-2B6D319690E3","ispublic":1,"isfriend":0,"isfamily":0},{"id":"52511484019","owner":"72649331@N00","secret":"b4ef90e683","server":"65535","farm":66,"title":"A2388FF2-EAE5-4024-BC77-EECFAA812A7A","ispublic":1,"isfriend":0,"isfamily":0},{"id":"52511483934","owner":"72649331@N00","secret":"6691eaf8a7","server":"65535","farm":66,"title":"652AF773-68DD-48ED-BAD0-A17A9A6E7B2F","ispublic":1,"isfriend":0,"isfamily":0},{"id":"52510739097","owner":"72649331@N00","secret":"ed5f915df5","server":"65535","farm":66,"title":"1A0D9A30-A849-43C5-A2B7-981ACBEDD679","ispublic":1,"isfriend":0,"isfamily":0},{"id":"52511211461","owner":"72649331@N00","secret":"4335cd2783","server":"65535","farm":66,"title":"8E56FFA3-50FF-43C8-B869-B01A3AEDB7FE","ispublic":1,"isfriend":0,"isfamily":0},{"id":"52511695340","owner":"72649331@N00","secret":"013e3b0e8f","server":"65535","farm":66,"title":"67422904-9616-4409-900A-7218F423482F","ispublic":1,"isfriend":0,"isfamily":0},{"id":"52511211266","owner":"72649331@N00","secret":"0cb7039110","server":"65535","farm":66,"title":"CB79C51B-1F2D-4376-A531-459C53BC57CD","ispublic":1,"isfriend":0,"isfamily":0},{"id":"52511761283","owner":"72649331@N00","secret":"cf109797ca","server":"65535","farm":66,"title":"28FCE841-57B0-40BA-B448-1375ACF2838D","ispublic":1,"isfriend":0,"isfamily":0},{"id":"52510738652","owner":"72649331@N00","secret":"9fdcd44dbb","server":"65535","farm":66,"title":"2494CE6F-D453-439D-92D2-5B8B107B61D4","ispublic":1,"isfriend":0,"isfamily":0},{"id":"52511761008","owner":"72649331@N00","secret":"7ed425140b","server":"65535","farm":66,"title":"1D6FC80A-B799-4FAD-A557-7C53FE92E7DF","ispublic":1,"isfriend":0,"isfamily":0},{"id":"52510738247","owner":"72649331@N00","secret":"a1ae3012f1","server":"65535","farm":66,"title":"ED8925E8-32E1-4ED7-94A1-EB505F36277D","ispublic":1,"isfriend":0,"isfamily":0},{"id":"52510732952","owner":"132113583@N03","secret":"54d68d2773","server":"65535","farm":66,"title":"commercial_interior_025_cover","ispublic":1,"isfriend":0,"isfamily":0},{"id":"52510738472","owner":"54785709@N08","secret":"141829cbee","server":"65535","farm":66,"title":"Driver Stand View","ispublic":1,"isfriend":0,"isfamily":0},{"id":"52511751318","owner":"78301411@N05","secret":"6de087598c","server":"65535","farm":66,"title":"Sand Green Tiny Turbo","ispublic":1,"isfriend":0,"isfamily":0},{"id":"52511674900","owner":"17600001@N08","secret":"ecf76e66bb","server":"65535","farm":66,"title":"1970 Chevy CST/10","ispublic":1,"isfriend":0,"isfamily":0},{"id":"52511463999","owner":"17600001@N08","secret":"e8508ed21c","server":"65535","farm":66,"title":"1968 Dodge Dart GTS","ispublic":1,"isfriend":0,"isfamily":0},{"id":"52511191351","owner":"17600001@N08","secret":"85d894dc9e","server":"65535","farm":66,"title":"1970 Chevy Chevelle SS454","ispublic":1,"isfriend":0,"isfamily":0},{"id":"52511463909","owner":"17600001@N08","secret":"4aecfdcc70","server":"65535","farm":66,"title":"1970 Chevy Chevelle SS454","ispublic":1,"isfriend":0,"isfamily":0},{"id":"52511191276","owner":"17600001@N08","secret":"24deb7b8ec","server":"65535","farm":66,"title":"1973 Chevy Nova","ispublic":1,"isfriend":0,"isfamily":0},{"id":"52511749673","owner":"194755915@N02","secret":"80e88431e3","server":"65535","farm":66,"title":"New meets old","ispublic":1,"isfriend":0,"isfamily":0},{"id":"52510726437","owner":"71304454@N04","secret":"0b20c4df1b","server":"65535","farm":66,"title":"Every little thing is gonna be alright...","ispublic":1,"isfriend":0,"isfamily":0},{"id":"52511198401","owner":"71304454@N04","secret":"1881330ecd","server":"65535","farm":66,"title":"Take me where I long to be in a Kombi...","ispublic":1,"isfriend":0,"isfamily":0},{"id":"52510724947","owner":"48682488@N05","secret":"6af8d6e6e1","server":"65535","farm":66,"title":"Rust bucket","ispublic":1,"isfriend":0,"isfamily":0},{"id":"52511468474","owner":"99447257@N05","secret":"7850769416","server":"65535","farm":66,"title":"Baby C’c Car Show   #carshow  #cars #classiccars","ispublic":1,"isfriend":0,"isfamily":0},{"id":"52511679930","owner":"99447257@N05","secret":"767b2e7e9a","server":"65535","farm":66,"title":"Baby C’c Car Show   #carshow  #cars #classiccars","ispublic":1,"isfriend":0,"isfamily":0},{"id":"52510723967","owner":"99447257@N05","secret":"58a4e95e30","server":"65535","farm":66,"title":"Baby C’c Car Show   #carshow  #cars #classiccars","ispublic":1,"isfriend":0,"isfamily":0},{"id":"52510723887","owner":"99447257@N05","secret":"78db0eb725","server":"65535","farm":66,"title":"Baby C’c Car Show   #carshow  #cars #classiccars","ispublic":1,"isfriend":0,"isfamily":0},{"id":"52511679770","owner":"99447257@N05","secret":"f69b33004f","server":"65535","farm":66,"title":"Baby C’c Car Show   #carshow  #cars #classiccars","ispublic":1,"isfriend":0,"isfamily":0},{"id":"52511746588","owner":"99447257@N05","secret":"9459afa52b","server":"65535","farm":66,"title":"Baby C’c Car Show   #carshow  #cars #classiccars","ispublic":1,"isfriend":0,"isfamily":0},{"id":"52511679595","owner":"99447257@N05","secret":"d0a5211131","server":"65535","farm":66,"title":"Baby C’c Car Show   #carshow  #cars #classiccars","ispublic":1,"isfriend":0,"isfamily":0},{"id":"52511195771","owner":"99447257@N05","secret":"b4ef95746e","server":"65535","farm":66,"title":"Baby C’c Car Show   #carshow  #cars #classiccars","ispublic":1,"isfriend":0,"isfamily":0},{"id":"52511679540","owner":"99447257@N05","secret":"ea8e68bfcf","server":"65535","farm":66,"title":"Baby C’c Car Show   #carshow  #cars #classiccars","ispublic":1,"isfriend":0,"isfamily":0},{"id":"52510723727","owner":"99447257@N05","secret":"0ae5da21a8","server":"65535","farm":66,"title":"Baby C’c Car Show   #carshow  #cars #classiccars","ispublic":1,"isfriend":0,"isfamily":0},{"id":"52510723622","owner":"99447257@N05","secret":"856762045b","server":"65535","farm":66,"title":"Baby C’c Car Show   #carshow  #cars #classiccars","ispublic":1,"isfriend":0,"isfamily":0},{"id":"52511679430","owner":"99447257@N05","secret":"645f84d10b","server":"65535","farm":66,"title":"Baby C’c Car Show   #carshow  #cars #classiccars","ispublic":1,"isfriend":0,"isfamily":0},{"id":"52511195471","owner":"99447257@N05","secret":"4674935957","server":"65535","farm":66,"title":"Baby C’c Car Show   #carshow  #cars #classiccars","ispublic":1,"isfriend":0,"isfamily":0}]},"stat":"ok"}